<?xml version="1.0" encoding="UTF-8" standalone="no"?>
<!-- Created with Inkscape (http://www.inkscape.org/) -->

<svg
   xmlns:dc="http://purl.org/dc/elements/1.1/"
   xmlns:cc="http://creativecommons.org/ns#"
   xmlns:rdf="http://www.w3.org/1999/02/22-rdf-syntax-ns#"
   xmlns:svg="http://www.w3.org/2000/svg"
   xmlns="http://www.w3.org/2000/svg"
   xmlns:sodipodi="http://sodipodi.sourceforge.net/DTD/sodipodi-0.dtd"
   xmlns:inkscape="http://www.inkscape.org/namespaces/inkscape"
   width="400mm"
   height="400mm"
   viewBox="0 0 400 400"
   version="1.1"
   id="svg8"
   inkscape:version="0.92.4 (5da689c313, 2019-01-14)"
   sodipodi:docname="open-kappa.svg">
  <defs
     id="defs2" />
  <sodipodi:namedview
     id="base"
     pagecolor="#ffffff"
     bordercolor="#666666"
     borderopacity="1.0"
     inkscape:pageopacity="0.0"
     inkscape:pageshadow="2"
     inkscape:zoom="0.35"
     inkscape:cx="-78.571429"
     inkscape:cy="560"
     inkscape:document-units="mm"
     inkscape:current-layer="layer1"
     showgrid="false"
     inkscape:window-width="1920"
     inkscape:window-height="1017"
     inkscape:window-x="-8"
     inkscape:window-y="-8"
     inkscape:window-maximized="1" />
  <metadata
     id="metadata5">
    <rdf:RDF>
      <cc:Work
         rdf:about="">
        <dc:format>image/svg+xml</dc:format>
        <dc:type
           rdf:resource="http://purl.org/dc/dcmitype/StillImage" />
        <dc:title></dc:title>
      </cc:Work>
    </rdf:RDF>
  </metadata>
  <g
     inkscape:label="Livello 1"
     inkscape:groupmode="layer"
     id="layer1"
     transform="translate(0,103)">
    <ellipse
       style="fill:#00feff;fill-opacity:1;stroke:none;stroke-width:3.60932684;stroke-miterlimit:4;stroke-dasharray:none;stroke-opacity:1"
       id="path815"
       cx="159.91132"
       cy="141.12378"
       rx="203.57323"
       ry="93.975967"
       transform="matrix(0.94008833,-0.34093099,0.34838151,0.93735283,0,0)" />
    <ellipse
       style="fill:#ffffff;stroke:none;stroke-width:3.48090005;stroke-miterlimit:4;stroke-dasharray:none;stroke-opacity:1"
       id="path817"
       cx="145.27681"
       cy="147.75163"
       rx="175.62289"
       ry="79.127258"
       transform="matrix(0.94008833,-0.34093099,0.34838151,0.93735283,0,0)" />
    <flowRoot
       xml:space="preserve"
       id="flowRoot819"
       style="font-style:normal;font-weight:normal;font-size:40px;line-height:1.25;font-family:sans-serif;text-align:center;letter-spacing:0px;word-spacing:0px;text-anchor:middle;fill:#d45500;fill-opacity:1;stroke:none"
       transform="matrix(0.27515658,-0.09978787,0.10101941,0.27180211,-88.731917,-43.644157)"><flowRegion
         id="flowRegion821"
         style="text-align:center;text-anchor:middle;fill:#d45500"><rect
           id="rect823"
           width="928.57141"
           height="380.00006"
           x="268.57144"
           y="585.37677"
           style="text-align:center;text-anchor:middle;fill:#d45500" /></flowRegion><flowPara
         id="flowPara825"
         style="font-size:333.33334351px;text-align:center;text-anchor:middle;fill:#d45500">OPEN</flowPara></flowRoot>    <flowRoot
       xml:space="preserve"
       id="flowRoot827"
       style="font-style:normal;font-weight:normal;font-size:40px;line-height:1.25;font-family:sans-serif;letter-spacing:0px;word-spacing:0px;fill:#000000;fill-opacity:1;stroke:none"
       transform="scale(0.26458333)"><flowRegion
         id="flowRegion829"><rect
           id="rect831"
           width="1808.5714"
           height="1200"
           x="-288.57144"
           y="119.66251" /></flowRegion><flowPara
         id="flowPara833"></flowPara></flowRoot>    <flowRoot
       xml:space="preserve"
       id="flowRoot835"
       style="font-style:normal;font-weight:normal;font-size:40px;line-height:1.25;font-family:sans-serif;text-align:center;letter-spacing:0px;word-spacing:0px;text-anchor:middle;fill:#800080;fill-opacity:1;stroke:none"
       transform="matrix(0.44409491,0,0,0.43529366,854.48814,-67.787043)"><flowRegion
         id="flowRegion837"
         style="text-align:center;text-anchor:middle;fill:#800080"><rect
           id="rect839"
           width="314.28564"
           height="462.85709"
           x="-1385.7142"
           y="362.51965"
           style="text-align:center;text-anchor:middle;fill:#800080" /></flowRegion><flowPara
         id="flowPara841"
         style="font-style:normal;font-variant:normal;font-weight:normal;font-stretch:normal;font-size:400px;font-family:'Javanese Text';-inkscape-font-specification:'Javanese Text';text-align:center;text-anchor:middle;fill:#800080">K</flowPara></flowRoot>  </g>
</svg>
